%YAML 1.1
%TAG !u! tag:unity3d.com,2011:
--- !u!21 &2100000
Material:
  serializedVersion: 6
  m_ObjectHideFlags: 0
  m_CorrespondingSourceObject: {fileID: 0}
  m_PrefabInstance: {fileID: 0}
  m_PrefabAsset: {fileID: 0}
  m_Name: New Material 1
  m_Shader: {fileID: 46, guid: 0000000000000000f000000000000000, type: 0}
  m_ShaderKeywords: USE_ALBEDO_TEXTURE _AUTO_PULSE__ON _MAPPING_LATITUDE_LONGITUDE_LAYOUT
    _PULSE_ENABLED__ON
  m_LightmapFlags: 4
  m_EnableInstancingVariants: 0
  m_DoubleSidedGI: 0
  m_CustomRenderQueue: -1
  stringTagMap: {}
  disabledShaderPasses: []
  m_SavedProperties:
    serializedVersion: 3
    m_TexEnvs:
    - _BackTex:
        m_Texture: {fileID: 0}
        m_Scale: {x: 1, y: 1}
        m_Offset: {x: 0, y: 0}
    - _BumpMap:
        m_Texture: {fileID: 0}
        m_Scale: {x: 1, y: 1}
        m_Offset: {x: 0, y: 0}
    - _Color_Map_:
        m_Texture: {fileID: 0}
        m_Scale: {x: 1, y: 1}
        m_Offset: {x: 0, y: 0}
    - _DetailAlbedoMap:
        m_Texture: {fileID: 0}
        m_Scale: {x: 1, y: 1}
        m_Offset: {x: 0, y: 0}
    - _DetailMask:
        m_Texture: {fileID: 0}
        m_Scale: {x: 1, y: 1}
        m_Offset: {x: 0, y: 0}
    - _DetailNormalMap:
        m_Texture: {fileID: 0}
        m_Scale: {x: 1, y: 1}
        m_Offset: {x: 0, y: 0}
    - _DownTex:
        m_Texture: {fileID: 0}
        m_Scale: {x: 1, y: 1}
        m_Offset: {x: 0, y: 0}
    - _EmissionMap:
        m_Texture: {fileID: 0}
        m_Scale: {x: 1, y: 1}
        m_Offset: {x: 0, y: 0}
    - _FrontTex:
        m_Texture: {fileID: 0}
        m_Scale: {x: 1, y: 1}
        m_Offset: {x: 0, y: 0}
    - _LeftTex:
        m_Texture: {fileID: 0}
        m_Scale: {x: 1, y: 1}
        m_Offset: {x: 0, y: 0}
    - _MainTex:
        m_Texture: {fileID: 0}
        m_Scale: {x: 1, y: 1}
        m_Offset: {x: 0, y: 0}
    - _MetallicGlossMap:
        m_Texture: {fileID: 0}
        m_Scale: {x: 1, y: 1}
        m_Offset: {x: 0, y: 0}
    - _OcclusionMap:
        m_Texture: {fileID: 0}
        m_Scale: {x: 1, y: 1}
        m_Offset: {x: 0, y: 0}
    - _ParallaxMap:
        m_Texture: {fileID: 0}
        m_Scale: {x: 1, y: 1}
        m_Offset: {x: 0, y: 0}
    - _RightTex:
        m_Texture: {fileID: 0}
        m_Scale: {x: 1, y: 1}
        m_Offset: {x: 0, y: 0}
    - _Tex:
        m_Texture: {fileID: 0}
        m_Scale: {x: 1, y: 1}
        m_Offset: {x: 0, y: 0}
    - _UpTex:
        m_Texture: {fileID: 0}
        m_Scale: {x: 1, y: 1}
        m_Offset: {x: 0, y: 0}
    m_Floats:
    - USE_ALBEDO_TEXTURE: 1
    - _Auto_Pulse_: 1
    - _BumpScale: 1
    - _Cutoff: 0.5
    - _Desaturated_Intensity_: 0
    - _DetailNormalMapScale: 1
    - _DstBlend: 0
    - _Edge_Width_: 1
    - _Exposure: 1
    - _Fill_Start_Time_: 0.5
    - _Filter_Width_: 1.5
    - _Flip_V_: 0
    - _GlossMapScale: 1
    - _Glossiness: 0.5
    - _GlossyReflections: 1
    - _ImageType: 0
    - _Intensity_: 5
    - _Layout: 0
    - _Line_End_Time_: 0.5
    - _Mapping: 1
    - _Max_Hover_: 0.004
    - _Max_In_Angle_: 0.6
    - _Max_Out_Angle_: 0.4
    - _Metallic: 0
    - _MirrorOnBack: 0
    - _Mode: 0
    - _OcclusionStrength: 1
    - _Parallax: 0.02
    - _Period_: 2.7
    - _PressIntensity: 1
    - _PressRimPower: 5
    - _Pulse_: 0.346
    - _Pulse_Amplify_Leading_: 0
    - _Pulse_Color_Width_: 1
    - _Pulse_Enabled_: 1
    - _Pulse_Lead_Fuzz_: 0.67
    - _Pulse_Line_Fuzz_: 0.2
    - _Pulse_Noise_Frequency_: 777
    - _Pulse_Outer_Size_: 1.05
    - _Pulse_Tail_Fuzz_: 0.8
    - _Pulse_Vary_: 0.075
    - _Pulse_Width_: 1
    - _RimPower: 6.6
    - _Rotation: 0
    - _SmoothnessTextureChannel: 0
    - _SpecularHighlights: 1
    - _SrcBlend: 1
    - _UVSec: 0
    - _Vary_Color_: 0.7
    - _Vary_UV_: 0.71
    - _WireThickness: 100
    - _Wrist_Fade_End_: 0.16
    - _Wrist_Fade_Start_: 0.1
    - _ZWrite: 1
    m_Colors:
    - _Color: {r: 0.06674972, g: 0.27046812, b: 0.9433962, a: 1}
    - _EmissionColor: {r: 0, g: 0, b: 0, a: 1}
    - _Fill_Color_: {r: 0.317647, g: 0.317647, b: 0.317647, a: 1}
    - _Line_Color_: {r: 0.717647, g: 0.717647, b: 0.717647, a: 1}
    - _PressRimColor: {r: 1, g: 1, b: 1, a: 1}
    - _Pulse_Origin_: {r: 0.5, g: 0, b: 0, a: 0}
    - _RimColor: {r: 0.26, g: 0.19, b: 0.16, a: 0}
    - _Tint: {r: 0.5, g: 0.5, b: 0.5, a: 0.5}
